// Jest Snapshot v1, https://goo.gl/fbAQLP

exports[`NavigationStacks test AccountStackScreen 1`] = `
<View
  collapsable={false}
  pointerEvents="box-none"
  style={
    Object {
      "flex": 1,
    }
  }
>
  <View
    style={
      Object {
        "flex": 1,
      }
    }
  >
    <RNCSafeAreaProvider
      onInsetsChange={[Function]}
      style={
        Array [
          Object {
            "flex": 1,
          },
          undefined,
        ]
      }
    >
      <View
        pointerEvents="box-none"
        style={
          Object {
            "zIndex": 1,
          }
        }
      >
        <View
          accessibilityElementsHidden={false}
          importantForAccessibility="auto"
          onLayout={[Function]}
          pointerEvents="box-none"
          style={null}
        >
          <View
            pointerEvents="box-none"
            style={
              Object {
                "bottom": 0,
                "left": 0,
                "opacity": 1,
                "position": "absolute",
                "right": 0,
                "top": 0,
                "zIndex": 0,
              }
            }
          >
            <View
              style={
                Object {
                  "backgroundColor": "rgb(255, 255, 255)",
                  "borderBottomColor": "rgb(216, 216, 216)",
                  "flex": 1,
                  "shadowColor": "rgb(216, 216, 216)",
                  "shadowOffset": Object {
                    "height": 0.5,
                    "width": 0,
                  },
                  "shadowOpacity": 0.85,
                  "shadowRadius": 0,
                }
              }
            />
          </View>
          <View
            pointerEvents="box-none"
            style={
              Object {
                "height": 64,
                "maxHeight": undefined,
                "minHeight": undefined,
                "opacity": undefined,
                "transform": undefined,
              }
            }
          >
            <View
              pointerEvents="none"
              style={
                Object {
                  "height": 20,
                }
              }
            />
            <View
              pointerEvents="box-none"
              style={
                Object {
                  "alignItems": "center",
                  "flex": 1,
                  "flexDirection": "row",
                  "justifyContent": "center",
                }
              }
            >
              <View
                pointerEvents="box-none"
                style={
                  Object {
                    "marginHorizontal": 16,
                    "opacity": 1,
                  }
                }
              >
                <Image
                  source={
                    Object {
                      "uri": "https://assets.gitlab-static.net/uploads/-/system/project/avatar/17812843/logo_square.png",
                    }
                  }
                  style={
                    Object {
                      "height": 50,
                      "width": 50,
                    }
                  }
                />
              </View>
            </View>
          </View>
        </View>
      </View>
      <View
        onLayout={[Function]}
        style={
          Object {
            "flex": 1,
          }
        }
      >
        <View
          pointerEvents="box-none"
          style={
            Object {
              "bottom": 0,
              "left": 0,
              "position": "absolute",
              "right": 0,
              "top": 0,
            }
          }
        >
          <View
            collapsable={false}
            style={
              Object {
                "opacity": 1,
              }
            }
          />
          <View
            accessibilityElementsHidden={false}
            closing={false}
            gestureVelocityImpact={0.3}
            importantForAccessibility="auto"
            onClose={[Function]}
            onGestureBegin={[Function]}
            onGestureCanceled={[Function]}
            onGestureEnd={[Function]}
            onOpen={[Function]}
            onTransition={[Function]}
            pointerEvents="box-none"
            style={
              Array [
                Object {
                  "overflow": undefined,
                },
                Object {
                  "bottom": 0,
                  "left": 0,
                  "position": "absolute",
                  "right": 0,
                  "top": 0,
                },
              ]
            }
            transitionSpec={
              Object {
                "close": Object {
                  "animation": "spring",
                  "config": Object {
                    "damping": 500,
                    "mass": 3,
                    "overshootClamping": true,
                    "restDisplacementThreshold": 10,
                    "restSpeedThreshold": 10,
                    "stiffness": 1000,
                  },
                },
                "open": Object {
                  "animation": "spring",
                  "config": Object {
                    "damping": 500,
                    "mass": 3,
                    "overshootClamping": true,
                    "restDisplacementThreshold": 10,
                    "restSpeedThreshold": 10,
                    "stiffness": 1000,
                  },
                },
              }
            }
          >
            <View
              needsOffscreenAlphaCompositing={false}
              pointerEvents="box-none"
              style={
                Object {
                  "flex": 1,
                }
              }
            >
              <View
                enabled={false}
                hitSlop={
                  Object {
                    "right": -700,
                  }
                }
                maxDeltaY={20}
                minOffsetX={5}
                onHandlerStateChange={[Function]}
              >
                <View
                  style={
                    Object {
                      "flex": 1,
                      "transform": Array [
                        Object {
                          "translateX": 0,
                        },
                        Object {
                          "translateX": 0,
                        },
                      ],
                    }
                  }
                >
                  <View
                    pointerEvents="none"
                    style={
                      Object {
                        "backgroundColor": "rgb(242, 242, 242)",
                        "bottom": 0,
                        "left": 0,
                        "position": "absolute",
                        "shadowColor": "#000",
                        "shadowOffset": Object {
                          "height": 1,
                          "width": -1,
                        },
                        "shadowOpacity": 0.3,
                        "shadowRadius": 5,
                        "top": 0,
                        "width": 3,
                      }
                    }
                  />
                  <View
                    style={
                      Array [
                        Object {
                          "flex": 1,
                          "overflow": "hidden",
                        },
                        Array [
                          Object {
                            "backgroundColor": "rgb(242, 242, 242)",
                          },
                          undefined,
                        ],
                      ]
                    }
                  >
                    <View
                      style={
                        Object {
                          "flex": 1,
                          "flexDirection": "column-reverse",
                        }
                      }
                    >
                      <View
                        style={
                          Object {
                            "flex": 1,
                          }
                        }
                      >
                        <RCTScrollView
                          contentContainerStyle={
                            Object {
                              "alignItems": "center",
                              "flex": 1,
                              "justifyContent": "center",
                              "paddingVertical": 100,
                            }
                          }
                        >
                          <View>
                            <Text
                              style={
                                Array [
                                  Object {
                                    "color": "#000000",
                                    "fontFamily": "System",
                                    "fontWeight": "400",
                                    "textAlign": "left",
                                  },
                                  Array [
                                    Object {
                                      "color": "rgba(0, 0, 0, 0.54)",
                                      "fontFamily": "System",
                                      "fontWeight": "400",
                                      "textAlign": "left",
                                      "writingDirection": "ltr",
                                    },
                                    Array [
                                      Object {
                                        "fontSize": 12,
                                        "letterSpacing": 0.4,
                                        "lineHeight": 20,
                                        "marginVertical": 2,
                                      },
                                      Object {
                                        "marginBottom": 10,
                                      },
                                    ],
                                    Array [
                                      Object {
                                        "fontSize": 12,
                                        "letterSpacing": 0.4,
                                        "lineHeight": 20,
                                        "marginVertical": 2,
                                      },
                                      Object {
                                        "marginBottom": 10,
                                      },
                                    ],
                                  ],
                                ]
                              }
                            >
                              Du bist momentan noch anonym unterwegs.
                            </Text>
                            <View
                              style={
                                Object {
                                  "backgroundColor": "#6200ee",
                                  "borderColor": "transparent",
                                  "borderRadius": 4,
                                  "borderStyle": "solid",
                                  "borderWidth": 0,
                                  "elevation": 2,
                                  "marginVertical": 8,
                                  "minWidth": "20%",
                                  "shadowColor": "#000000",
                                  "shadowOffset": Object {
                                    "height": 0.75,
                                    "width": 0,
                                  },
                                  "shadowOpacity": 0.24,
                                  "shadowRadius": 1.5,
                                }
                              }
                            >
                              <View
                                accessibilityRole="button"
                                accessible={true}
                                focusable={true}
                                onClick={[Function]}
                                onResponderGrant={[Function]}
                                onResponderMove={[Function]}
                                onResponderRelease={[Function]}
                                onResponderTerminate={[Function]}
                                onResponderTerminationRequest={[Function]}
                                onStartShouldSetResponder={[Function]}
                                style={
                                  Array [
                                    Object {
                                      "overflow": "hidden",
                                    },
                                    Object {
                                      "borderRadius": 4,
                                    },
                                  ]
                                }
                              >
                                <View
                                  style={
                                    Array [
                                      Object {
                                        "alignItems": "center",
                                        "flexDirection": "row",
                                        "justifyContent": "center",
                                      },
                                      undefined,
                                    ]
                                  }
                                >
                                  <Text
                                    numberOfLines={1}
                                    style={
                                      Array [
                                        Object {
                                          "color": "#000000",
                                          "fontFamily": "System",
                                          "fontWeight": "400",
                                          "textAlign": "left",
                                        },
                                        Array [
                                          Object {
                                            "letterSpacing": 1,
                                            "marginHorizontal": 16,
                                            "marginVertical": 9,
                                            "textAlign": "center",
                                          },
                                          undefined,
                                          Object {
                                            "textTransform": "uppercase",
                                          },
                                          Object {
                                            "color": "#ffffff",
                                            "fontFamily": "System",
                                            "fontWeight": "500",
                                          },
                                          Object {
                                            "fontFamily": "System",
                                            "fontWeight": "500",
                                          },
                                          undefined,
                                        ],
                                      ]
                                    }
                                  >
                                    Login
                                  </Text>
                                </View>
                              </View>
                            </View>
                            <Text
                              style={
                                Array [
                                  Object {
                                    "color": "#000000",
                                    "fontFamily": "System",
                                    "fontWeight": "400",
                                    "textAlign": "left",
                                  },
                                  Array [
                                    Object {
                                      "color": "rgba(0, 0, 0, 0.87)",
                                      "fontFamily": "System",
                                      "fontWeight": "400",
                                      "textAlign": "left",
                                      "writingDirection": "ltr",
                                    },
                                    Array [
                                      Object {
                                        "fontSize": 14,
                                        "letterSpacing": 0.25,
                                        "lineHeight": 20,
                                        "marginVertical": 2,
                                      },
                                      Object {
                                        "marginVertical": 10,
                                      },
                                    ],
                                    Array [
                                      Object {
                                        "fontSize": 14,
                                        "letterSpacing": 0.25,
                                        "lineHeight": 20,
                                        "marginVertical": 2,
                                      },
                                      Object {
                                        "marginVertical": 10,
                                      },
                                    ],
                                  ],
                                ]
                              }
                            >
                              oder
                            </Text>
                            <View
                              style={
                                Object {
                                  "backgroundColor": "#6200ee",
                                  "borderColor": "transparent",
                                  "borderRadius": 4,
                                  "borderStyle": "solid",
                                  "borderWidth": 0,
                                  "elevation": 2,
                                  "marginVertical": 8,
                                  "minWidth": "20%",
                                  "shadowColor": "#000000",
                                  "shadowOffset": Object {
                                    "height": 0.75,
                                    "width": 0,
                                  },
                                  "shadowOpacity": 0.24,
                                  "shadowRadius": 1.5,
                                }
                              }
                            >
                              <View
                                accessibilityRole="button"
                                accessible={true}
                                focusable={true}
                                onClick={[Function]}
                                onResponderGrant={[Function]}
                                onResponderMove={[Function]}
                                onResponderRelease={[Function]}
                                onResponderTerminate={[Function]}
                                onResponderTerminationRequest={[Function]}
                                onStartShouldSetResponder={[Function]}
                                style={
                                  Array [
                                    Object {
                                      "overflow": "hidden",
                                    },
                                    Object {
                                      "borderRadius": 4,
                                    },
                                  ]
                                }
                              >
                                <View
                                  style={
                                    Array [
                                      Object {
                                        "alignItems": "center",
                                        "flexDirection": "row",
                                        "justifyContent": "center",
                                      },
                                      undefined,
                                    ]
                                  }
                                >
                                  <Text
                                    numberOfLines={1}
                                    style={
                                      Array [
                                        Object {
                                          "color": "#000000",
                                          "fontFamily": "System",
                                          "fontWeight": "400",
                                          "textAlign": "left",
                                        },
                                        Array [
                                          Object {
                                            "letterSpacing": 1,
                                            "marginHorizontal": 16,
                                            "marginVertical": 9,
                                            "textAlign": "center",
                                          },
                                          undefined,
                                          Object {
                                            "textTransform": "uppercase",
                                          },
                                          Object {
                                            "color": "#ffffff",
                                            "fontFamily": "System",
                                            "fontWeight": "500",
                                          },
                                          Object {
                                            "fontFamily": "System",
                                            "fontWeight": "500",
                                          },
                                          undefined,
                                        ],
                                      ]
                                    }
                                  >
                                    Account erstellen
                                  </Text>
                                </View>
                              </View>
                            </View>
                            <View
                              style={
                                Object {
                                  "backgroundColor": "#6200ee",
                                  "borderColor": "transparent",
                                  "borderRadius": 4,
                                  "borderStyle": "solid",
                                  "borderWidth": 0,
                                  "elevation": 2,
                                  "marginVertical": 8,
                                  "minWidth": "20%",
                                  "shadowColor": "#000000",
                                  "shadowOffset": Object {
                                    "height": 0.75,
                                    "width": 0,
                                  },
                                  "shadowOpacity": 0.24,
                                  "shadowRadius": 1.5,
                                }
                              }
                            >
                              <View
                                accessibilityLabel="Meine Daten anfordern"
                                accessibilityRole="button"
                                accessible={true}
                                focusable={true}
                                onClick={[Function]}
                                onResponderGrant={[Function]}
                                onResponderMove={[Function]}
                                onResponderRelease={[Function]}
                                onResponderTerminate={[Function]}
                                onResponderTerminationRequest={[Function]}
                                onStartShouldSetResponder={[Function]}
                                style={
                                  Array [
                                    Object {
                                      "overflow": "hidden",
                                    },
                                    Object {
                                      "borderRadius": 4,
                                    },
                                  ]
                                }
                              >
                                <View
                                  style={
                                    Array [
                                      Object {
                                        "alignItems": "center",
                                        "flexDirection": "row",
                                        "justifyContent": "center",
                                      },
                                      undefined,
                                    ]
                                  }
                                >
                                  <Text
                                    numberOfLines={1}
                                    style={
                                      Array [
                                        Object {
                                          "color": "#000000",
                                          "fontFamily": "System",
                                          "fontWeight": "400",
                                          "textAlign": "left",
                                        },
                                        Array [
                                          Object {
                                            "letterSpacing": 1,
                                            "marginHorizontal": 16,
                                            "marginVertical": 9,
                                            "textAlign": "center",
                                          },
                                          undefined,
                                          Object {
                                            "textTransform": "uppercase",
                                          },
                                          Object {
                                            "color": "#ffffff",
                                            "fontFamily": "System",
                                            "fontWeight": "500",
                                          },
                                          Object {
                                            "fontFamily": "System",
                                            "fontWeight": "500",
                                          },
                                          undefined,
                                        ],
                                      ]
                                    }
                                  >
                                    Meine Daten anfordern
                                  </Text>
                                </View>
                              </View>
                            </View>
                          </View>
                        </RCTScrollView>
                      </View>
                    </View>
                  </View>
                </View>
              </View>
            </View>
          </View>
        </View>
      </View>
    </RNCSafeAreaProvider>
  </View>
</View>
`;

exports[`NavigationStacks test FriendsStackScreen 1`] = `
<View
  collapsable={false}
  pointerEvents="box-none"
  style={
    Object {
      "flex": 1,
    }
  }
>
  <View
    style={
      Object {
        "flex": 1,
      }
    }
  >
    <RNCSafeAreaProvider
      onInsetsChange={[Function]}
      style={
        Array [
          Object {
            "flex": 1,
          },
          undefined,
        ]
      }
    >
      <View
        pointerEvents="box-none"
        style={
          Object {
            "zIndex": 1,
          }
        }
      >
        <View
          accessibilityElementsHidden={false}
          importantForAccessibility="auto"
          onLayout={[Function]}
          pointerEvents="box-none"
          style={null}
        >
          <View
            pointerEvents="box-none"
            style={
              Object {
                "bottom": 0,
                "left": 0,
                "opacity": 1,
                "position": "absolute",
                "right": 0,
                "top": 0,
                "zIndex": 0,
              }
            }
          >
            <View
              style={
                Object {
                  "backgroundColor": "rgb(255, 255, 255)",
                  "borderBottomColor": "rgb(216, 216, 216)",
                  "flex": 1,
                  "shadowColor": "rgb(216, 216, 216)",
                  "shadowOffset": Object {
                    "height": 0.5,
                    "width": 0,
                  },
                  "shadowOpacity": 0.85,
                  "shadowRadius": 0,
                }
              }
            />
          </View>
          <View
            pointerEvents="box-none"
            style={
              Object {
                "height": 64,
                "maxHeight": undefined,
                "minHeight": undefined,
                "opacity": undefined,
                "transform": undefined,
              }
            }
          >
            <View
              pointerEvents="none"
              style={
                Object {
                  "height": 20,
                }
              }
            />
            <View
              pointerEvents="box-none"
              style={
                Object {
                  "alignItems": "center",
                  "flex": 1,
                  "flexDirection": "row",
                  "justifyContent": "center",
                }
              }
            >
              <View
                pointerEvents="box-none"
                style={
                  Object {
                    "marginHorizontal": 16,
                    "opacity": 1,
                  }
                }
              >
                <Image
                  source={
                    Object {
                      "uri": "https://assets.gitlab-static.net/uploads/-/system/project/avatar/17812843/logo_square.png",
                    }
                  }
                  style={
                    Object {
                      "height": 50,
                      "width": 50,
                    }
                  }
                />
              </View>
            </View>
          </View>
        </View>
      </View>
      <View
        onLayout={[Function]}
        style={
          Object {
            "flex": 1,
          }
        }
      >
        <View
          pointerEvents="box-none"
          style={
            Object {
              "bottom": 0,
              "left": 0,
              "position": "absolute",
              "right": 0,
              "top": 0,
            }
          }
        >
          <View
            collapsable={false}
            style={
              Object {
                "opacity": 1,
              }
            }
          />
          <View
            accessibilityElementsHidden={false}
            closing={false}
            gestureVelocityImpact={0.3}
            importantForAccessibility="auto"
            onClose={[Function]}
            onGestureBegin={[Function]}
            onGestureCanceled={[Function]}
            onGestureEnd={[Function]}
            onOpen={[Function]}
            onTransition={[Function]}
            pointerEvents="box-none"
            style={
              Array [
                Object {
                  "overflow": undefined,
                },
                Object {
                  "bottom": 0,
                  "left": 0,
                  "position": "absolute",
                  "right": 0,
                  "top": 0,
                },
              ]
            }
            transitionSpec={
              Object {
                "close": Object {
                  "animation": "spring",
                  "config": Object {
                    "damping": 500,
                    "mass": 3,
                    "overshootClamping": true,
                    "restDisplacementThreshold": 10,
                    "restSpeedThreshold": 10,
                    "stiffness": 1000,
                  },
                },
                "open": Object {
                  "animation": "spring",
                  "config": Object {
                    "damping": 500,
                    "mass": 3,
                    "overshootClamping": true,
                    "restDisplacementThreshold": 10,
                    "restSpeedThreshold": 10,
                    "stiffness": 1000,
                  },
                },
              }
            }
          >
            <View
              needsOffscreenAlphaCompositing={false}
              pointerEvents="box-none"
              style={
                Object {
                  "flex": 1,
                }
              }
            >
              <View
                enabled={false}
                hitSlop={
                  Object {
                    "right": -700,
                  }
                }
                maxDeltaY={20}
                minOffsetX={5}
                onHandlerStateChange={[Function]}
              >
                <View
                  style={
                    Object {
                      "flex": 1,
                      "transform": Array [
                        Object {
                          "translateX": 0,
                        },
                        Object {
                          "translateX": 0,
                        },
                      ],
                    }
                  }
                >
                  <View
                    pointerEvents="none"
                    style={
                      Object {
                        "backgroundColor": "rgb(242, 242, 242)",
                        "bottom": 0,
                        "left": 0,
                        "position": "absolute",
                        "shadowColor": "#000",
                        "shadowOffset": Object {
                          "height": 1,
                          "width": -1,
                        },
                        "shadowOpacity": 0.3,
                        "shadowRadius": 5,
                        "top": 0,
                        "width": 3,
                      }
                    }
                  />
                  <View
                    style={
                      Array [
                        Object {
                          "flex": 1,
                          "overflow": "hidden",
                        },
                        Array [
                          Object {
                            "backgroundColor": "rgb(242, 242, 242)",
                          },
                          undefined,
                        ],
                      ]
                    }
                  >
                    <View
                      style={
                        Object {
                          "flex": 1,
                          "flexDirection": "column-reverse",
                        }
                      }
                    >
                      <View
                        style={
                          Object {
                            "flex": 1,
                          }
                        }
                      >
                        <View
                          style={
                            Array [
                              Object {
                                "alignItems": "center",
                                "display": "flex",
                                "justifyContent": "center",
                                "marginHorizontal": 20,
                              },
                              Object {
                                "flex": 1,
                                "padding": 10,
                              },
                            ]
                          }
                        >
                          <Text
                            style={
                              Array [
                                Object {
                                  "color": "#000000",
                                  "fontFamily": "System",
                                  "fontWeight": "400",
                                  "textAlign": "left",
                                },
                                Array [
                                  Object {
                                    "color": "rgba(0, 0, 0, 0.87)",
                                    "fontFamily": "System",
                                    "fontWeight": "400",
                                    "textAlign": "left",
                                    "writingDirection": "ltr",
                                  },
                                  Array [
                                    Object {
                                      "fontSize": 14,
                                      "letterSpacing": 0.25,
                                      "lineHeight": 20,
                                      "marginVertical": 2,
                                    },
                                    Object {
                                      "textAlign": "center",
                                    },
                                  ],
                                  Array [
                                    Object {
                                      "fontSize": 14,
                                      "letterSpacing": 0.25,
                                      "lineHeight": 20,
                                      "marginVertical": 2,
                                    },
                                    Object {
                                      "textAlign": "center",
                                    },
                                  ],
                                ],
                              ]
                            }
                          >
                            Du musst dich registrieren um Freunde hinzufügen zu können.
                          </Text>
                          <View
                            style={
                              Object {
                                "backgroundColor": "#6200ee",
                                "borderColor": "transparent",
                                "borderRadius": 4,
                                "borderStyle": "solid",
                                "borderWidth": 0,
                                "elevation": 2,
                                "marginVertical": 20,
                                "minWidth": 64,
                                "shadowColor": "#000000",
                                "shadowOffset": Object {
                                  "height": 0.75,
                                  "width": 0,
                                },
                                "shadowOpacity": 0.24,
                                "shadowRadius": 1.5,
                              }
                            }
                          >
                            <View
                              accessibilityLabel="Jetzt registrieren"
                              accessibilityRole="button"
                              accessible={true}
                              focusable={true}
                              onClick={[Function]}
                              onResponderGrant={[Function]}
                              onResponderMove={[Function]}
                              onResponderRelease={[Function]}
                              onResponderTerminate={[Function]}
                              onResponderTerminationRequest={[Function]}
                              onStartShouldSetResponder={[Function]}
                              style={
                                Array [
                                  Object {
                                    "overflow": "hidden",
                                  },
                                  Object {
                                    "borderRadius": 4,
                                  },
                                ]
                              }
                            >
                              <View
                                style={
                                  Array [
                                    Object {
                                      "alignItems": "center",
                                      "flexDirection": "row",
                                      "justifyContent": "center",
                                    },
                                    undefined,
                                  ]
                                }
                              >
                                <Text
                                  numberOfLines={1}
                                  style={
                                    Array [
                                      Object {
                                        "color": "#000000",
                                        "fontFamily": "System",
                                        "fontWeight": "400",
                                        "textAlign": "left",
                                      },
                                      Array [
                                        Object {
                                          "letterSpacing": 1,
                                          "marginHorizontal": 16,
                                          "marginVertical": 9,
                                          "textAlign": "center",
                                        },
                                        undefined,
                                        Object {
                                          "textTransform": "uppercase",
                                        },
                                        Object {
                                          "color": "#ffffff",
                                          "fontFamily": "System",
                                          "fontWeight": "500",
                                        },
                                        Object {
                                          "fontFamily": "System",
                                          "fontWeight": "500",
                                        },
                                        undefined,
                                      ],
                                    ]
                                  }
                                >
                                  Jetzt registieren
                                </Text>
                              </View>
                            </View>
                          </View>
                        </View>
                      </View>
                    </View>
                  </View>
                </View>
              </View>
            </View>
          </View>
        </View>
      </View>
    </RNCSafeAreaProvider>
  </View>
</View>
`;

exports[`NavigationStacks test HomeStackScreen 1`] = `
<View
  collapsable={false}
  pointerEvents="box-none"
  style={
    Object {
      "flex": 1,
    }
  }
>
  <View
    style={
      Object {
        "flex": 1,
      }
    }
  >
    <RNCSafeAreaProvider
      onInsetsChange={[Function]}
      style={
        Array [
          Object {
            "flex": 1,
          },
          undefined,
        ]
      }
    >
      <View
        pointerEvents="box-none"
        style={
          Object {
            "zIndex": 1,
          }
        }
      >
        <View
          accessibilityElementsHidden={false}
          importantForAccessibility="auto"
          onLayout={[Function]}
          pointerEvents="box-none"
          style={null}
        >
          <View
            pointerEvents="box-none"
            style={
              Object {
                "bottom": 0,
                "left": 0,
                "opacity": 1,
                "position": "absolute",
                "right": 0,
                "top": 0,
                "zIndex": 0,
              }
            }
          >
            <View
              style={
                Object {
                  "backgroundColor": "rgb(255, 255, 255)",
                  "borderBottomColor": "rgb(216, 216, 216)",
                  "flex": 1,
                  "shadowColor": "rgb(216, 216, 216)",
                  "shadowOffset": Object {
                    "height": 0.5,
                    "width": 0,
                  },
                  "shadowOpacity": 0.85,
                  "shadowRadius": 0,
                }
              }
            />
          </View>
          <View
            pointerEvents="box-none"
            style={
              Object {
                "height": 64,
                "maxHeight": undefined,
                "minHeight": undefined,
                "opacity": undefined,
                "transform": undefined,
              }
            }
          >
            <View
              pointerEvents="none"
              style={
                Object {
                  "height": 20,
                }
              }
            />
            <View
              pointerEvents="box-none"
              style={
                Object {
                  "alignItems": "center",
                  "flex": 1,
                  "flexDirection": "row",
                  "justifyContent": "center",
                }
              }
            >
              <View
                pointerEvents="box-none"
                style={
                  Object {
                    "marginHorizontal": 16,
                    "opacity": 1,
                  }
                }
              >
                <Image
                  source={
                    Object {
                      "uri": "https://assets.gitlab-static.net/uploads/-/system/project/avatar/17812843/logo_square.png",
                    }
                  }
                  style={
                    Object {
                      "height": 50,
                      "width": 50,
                    }
                  }
                />
              </View>
            </View>
          </View>
        </View>
      </View>
      <View
        onLayout={[Function]}
        style={
          Object {
            "flex": 1,
          }
        }
      >
        <View
          pointerEvents="box-none"
          style={
            Object {
              "bottom": 0,
              "left": 0,
              "position": "absolute",
              "right": 0,
              "top": 0,
            }
          }
        >
          <View
            collapsable={false}
            style={
              Object {
                "opacity": 1,
              }
            }
          />
          <View
            accessibilityElementsHidden={false}
            closing={false}
            gestureVelocityImpact={0.3}
            importantForAccessibility="auto"
            onClose={[Function]}
            onGestureBegin={[Function]}
            onGestureCanceled={[Function]}
            onGestureEnd={[Function]}
            onOpen={[Function]}
            onTransition={[Function]}
            pointerEvents="box-none"
            style={
              Array [
                Object {
                  "overflow": undefined,
                },
                Object {
                  "bottom": 0,
                  "left": 0,
                  "position": "absolute",
                  "right": 0,
                  "top": 0,
                },
              ]
            }
            transitionSpec={
              Object {
                "close": Object {
                  "animation": "spring",
                  "config": Object {
                    "damping": 500,
                    "mass": 3,
                    "overshootClamping": true,
                    "restDisplacementThreshold": 10,
                    "restSpeedThreshold": 10,
                    "stiffness": 1000,
                  },
                },
                "open": Object {
                  "animation": "spring",
                  "config": Object {
                    "damping": 500,
                    "mass": 3,
                    "overshootClamping": true,
                    "restDisplacementThreshold": 10,
                    "restSpeedThreshold": 10,
                    "stiffness": 1000,
                  },
                },
              }
            }
          >
            <View
              needsOffscreenAlphaCompositing={false}
              pointerEvents="box-none"
              style={
                Object {
                  "flex": 1,
                }
              }
            >
              <View
                enabled={false}
                hitSlop={
                  Object {
                    "right": -700,
                  }
                }
                maxDeltaY={20}
                minOffsetX={5}
                onHandlerStateChange={[Function]}
              >
                <View
                  style={
                    Object {
                      "flex": 1,
                      "transform": Array [
                        Object {
                          "translateX": 0,
                        },
                        Object {
                          "translateX": 0,
                        },
                      ],
                    }
                  }
                >
                  <View
                    pointerEvents="none"
                    style={
                      Object {
                        "backgroundColor": "rgb(242, 242, 242)",
                        "bottom": 0,
                        "left": 0,
                        "position": "absolute",
                        "shadowColor": "#000",
                        "shadowOffset": Object {
                          "height": 1,
                          "width": -1,
                        },
                        "shadowOpacity": 0.3,
                        "shadowRadius": 5,
                        "top": 0,
                        "width": 3,
                      }
                    }
                  />
                  <View
                    style={
                      Array [
                        Object {
                          "flex": 1,
                          "overflow": "hidden",
                        },
                        Array [
                          Object {
                            "backgroundColor": "rgb(242, 242, 242)",
                          },
                          undefined,
                        ],
                      ]
                    }
                  >
                    <View
                      style={
                        Object {
                          "flex": 1,
                          "flexDirection": "column-reverse",
                        }
                      }
                    >
                      <View
                        style={
                          Object {
                            "flex": 1,
                          }
                        }
                      >
                        <View
                          style={
                            Object {
                              "flex": 1,
                              "flexDirection": "column",
                              "marginTop": 10,
                            }
                          }
                        >
                          <RCTScrollView
                            ListHeaderComponent={[Function]}
                            data={null}
                            disableVirtualization={false}
                            getItem={[Function]}
                            getItemCount={[Function]}
                            horizontal={false}
                            initialNumToRender={20}
                            keyExtractor={[Function]}
                            maxToRenderPerBatch={10}
                            onContentSizeChange={[Function]}
                            onEndReachedThreshold={2}
                            onLayout={[Function]}
                            onMomentumScrollEnd={[Function]}
                            onScroll={[Function]}
                            onScrollBeginDrag={[Function]}
                            onScrollEndDrag={[Function]}
                            removeClippedSubviews={false}
                            renderItem={[Function]}
                            scrollEventThrottle={50}
                            stickyHeaderIndices={Array []}
                            style={
                              Object {
                                "flex": 1,
                                "marginLeft": 8,
                                "marginRight": 8,
                                "width": "95%",
                              }
                            }
                            updateCellsBatchingPeriod={50}
                            viewabilityConfigCallbackPairs={Array []}
                            windowSize={21}
                          >
                            <View>
                              <View
                                onLayout={[Function]}
                              >
                                <View>
                                  <Text
                                    style={
                                      Object {
                                        "fontSize": 26,
                                        "fontWeight": "800",
                                        "marginLeft": 10,
                                      }
                                    }
                                  >
                                    Welcome back, 
                                    !
                                  </Text>
                                  <Text
                                    style={
                                      Object {
                                        "fontSize": 20,
                                        "fontWeight": "300",
                                        "marginLeft": 10,
                                        "marginTop": 20,
                                      }
                                    }
                                  >
                                    Meine Challenges
                                  </Text>
                                  <RCTScrollView
                                    ListEmptyComponent={[Function]}
                                    disableVirtualization={false}
                                    getItem={[Function]}
                                    getItemCount={[Function]}
                                    horizontal={true}
                                    initialNumToRender={10}
                                    keyExtractor={[Function]}
                                    maxToRenderPerBatch={10}
                                    onContentSizeChange={[Function]}
                                    onEndReachedThreshold={2}
                                    onLayout={[Function]}
                                    onMomentumScrollEnd={[Function]}
                                    onRefresh={[Function]}
                                    onScroll={[Function]}
                                    onScrollBeginDrag={[Function]}
                                    onScrollEndDrag={[Function]}
                                    refreshControl={
                                      <RefreshControlMock
                                        onRefresh={[Function]}
                                        refreshing={true}
                                      />
                                    }
                                    refreshing={true}
                                    removeClippedSubviews={false}
                                    renderItem={[Function]}
                                    scrollEventThrottle={50}
                                    stickyHeaderIndices={Array []}
                                    style={
                                      Object {
                                        "flex": 1,
                                        "marginLeft": 10,
                                        "marginRight": 10,
                                        "width": "95%",
                                      }
                                    }
                                    updateCellsBatchingPeriod={50}
                                    viewabilityConfigCallbackPairs={Array []}
                                    windowSize={21}
                                  >
                                    <RCTRefreshControl />
                                    <View>
                                      <View
                                        style={
                                          Object {
                                            "alignItems": "center",
                                            "borderColor": "#A4CBAF",
                                            "borderRadius": 10,
                                            "borderStyle": "solid",
                                            "borderWidth": 0.5,
                                            "flex": 1,
                                            "flexDirection": "row",
                                            "height": 200,
                                            "justifyContent": "center",
                                            "marginTop": 10,
                                            "width": 300,
                                          }
                                        }
                                      >
                                        <Text
                                          style={
                                            Object {
                                              "fontSize": 10,
                                            }
                                          }
                                        >
                                          Du nimmst leider noch an keinen Challenges teil!
                                        </Text>
                                      </View>
                                    </View>
                                  </RCTScrollView>
                                </View>
                              </View>
                            </View>
                          </RCTScrollView>
                        </View>
                      </View>
                    </View>
                  </View>
                </View>
              </View>
            </View>
          </View>
        </View>
      </View>
    </RNCSafeAreaProvider>
  </View>
</View>
`;

exports[`NavigationStacks test MyChallengesStackScreen 1`] = `
<View
  collapsable={false}
  pointerEvents="box-none"
  style={
    Object {
      "flex": 1,
    }
  }
>
  <View
    style={
      Object {
        "flex": 1,
      }
    }
  >
    <RNCSafeAreaProvider
      onInsetsChange={[Function]}
      style={
        Array [
          Object {
            "flex": 1,
          },
          undefined,
        ]
      }
    >
      <View
        pointerEvents="box-none"
        style={
          Object {
            "zIndex": 1,
          }
        }
      >
        <View
          accessibilityElementsHidden={false}
          importantForAccessibility="auto"
          onLayout={[Function]}
          pointerEvents="box-none"
          style={null}
        >
          <View
            pointerEvents="box-none"
            style={
              Object {
                "bottom": 0,
                "left": 0,
                "opacity": 1,
                "position": "absolute",
                "right": 0,
                "top": 0,
                "zIndex": 0,
              }
            }
          >
            <View
              style={
                Object {
                  "backgroundColor": "rgb(255, 255, 255)",
                  "borderBottomColor": "rgb(216, 216, 216)",
                  "flex": 1,
                  "shadowColor": "rgb(216, 216, 216)",
                  "shadowOffset": Object {
                    "height": 0.5,
                    "width": 0,
                  },
                  "shadowOpacity": 0.85,
                  "shadowRadius": 0,
                }
              }
            />
          </View>
          <View
            pointerEvents="box-none"
            style={
              Object {
                "height": 64,
                "maxHeight": undefined,
                "minHeight": undefined,
                "opacity": undefined,
                "transform": undefined,
              }
            }
          >
            <View
              pointerEvents="none"
              style={
                Object {
                  "height": 20,
                }
              }
            />
            <View
              pointerEvents="box-none"
              style={
                Object {
                  "alignItems": "center",
                  "flex": 1,
                  "flexDirection": "row",
                  "justifyContent": "center",
                }
              }
            >
              <View
                pointerEvents="box-none"
                style={
                  Object {
                    "marginHorizontal": 16,
                    "opacity": 1,
                  }
                }
              >
                <Image
                  source={
                    Object {
                      "uri": "https://assets.gitlab-static.net/uploads/-/system/project/avatar/17812843/logo_square.png",
                    }
                  }
                  style={
                    Object {
                      "height": 50,
                      "width": 50,
                    }
                  }
                />
              </View>
              <View
                pointerEvents="box-none"
                style={
                  Object {
                    "alignItems": "flex-end",
                    "bottom": 0,
                    "justifyContent": "center",
                    "opacity": 1,
                    "position": "absolute",
                    "right": 0,
                    "top": 0,
                  }
                }
              >
                <View
                  style={
                    Object {
                      "alignItems": "center",
                      "flexDirection": "row",
                    }
                  }
                >
                  <View
                    accessibilityRole="button"
                    accessible={true}
                    focusable={true}
                    hitSlop={
                      Object {
                        "bottom": 6,
                        "left": 6,
                        "right": 6,
                        "top": 6,
                      }
                    }
                    onClick={[Function]}
                    onResponderGrant={[Function]}
                    onResponderMove={[Function]}
                    onResponderRelease={[Function]}
                    onResponderTerminate={[Function]}
                    onResponderTerminationRequest={[Function]}
                    onStartShouldSetResponder={[Function]}
                    style={
                      Array [
                        Object {
                          "overflow": "hidden",
                        },
                        Array [
                          Object {
                            "alignItems": "center",
                            "justifyContent": "center",
                            "margin": 6,
                            "overflow": "hidden",
                          },
                          Object {
                            "borderRadius": 30,
                            "height": 60,
                            "width": 60,
                          },
                          undefined,
                          undefined,
                        ],
                      ]
                    }
                    testID="new-button"
                  >
                    <View>
                      <Text />
                    </View>
                  </View>
                  <View
                    accessibilityRole="button"
                    accessible={true}
                    focusable={true}
                    hitSlop={
                      Object {
                        "bottom": 6,
                        "left": 6,
                        "right": 6,
                        "top": 6,
                      }
                    }
                    onClick={[Function]}
                    onResponderGrant={[Function]}
                    onResponderMove={[Function]}
                    onResponderRelease={[Function]}
                    onResponderTerminate={[Function]}
                    onResponderTerminationRequest={[Function]}
                    onStartShouldSetResponder={[Function]}
                    style={
                      Array [
                        Object {
                          "overflow": "hidden",
                        },
                        Array [
                          Object {
                            "alignItems": "center",
                            "justifyContent": "center",
                            "margin": 6,
                            "overflow": "hidden",
                          },
                          Object {
                            "borderRadius": 30,
                            "height": 60,
                            "width": 60,
                          },
                          undefined,
                          undefined,
                        ],
                      ]
                    }
                    testID="filter-button"
                  >
                    <View>
                      <Text />
                    </View>
                  </View>
                </View>
              </View>
            </View>
          </View>
        </View>
      </View>
      <View
        onLayout={[Function]}
        style={
          Object {
            "flex": 1,
          }
        }
      >
        <View
          pointerEvents="box-none"
          style={
            Object {
              "bottom": 0,
              "left": 0,
              "position": "absolute",
              "right": 0,
              "top": 0,
            }
          }
        >
          <View
            collapsable={false}
            style={
              Object {
                "opacity": 1,
              }
            }
          />
          <View
            accessibilityElementsHidden={false}
            closing={false}
            gestureVelocityImpact={0.3}
            importantForAccessibility="auto"
            onClose={[Function]}
            onGestureBegin={[Function]}
            onGestureCanceled={[Function]}
            onGestureEnd={[Function]}
            onOpen={[Function]}
            onTransition={[Function]}
            pointerEvents="box-none"
            style={
              Array [
                Object {
                  "overflow": undefined,
                },
                Object {
                  "bottom": 0,
                  "left": 0,
                  "position": "absolute",
                  "right": 0,
                  "top": 0,
                },
              ]
            }
            transitionSpec={
              Object {
                "close": Object {
                  "animation": "spring",
                  "config": Object {
                    "damping": 500,
                    "mass": 3,
                    "overshootClamping": true,
                    "restDisplacementThreshold": 10,
                    "restSpeedThreshold": 10,
                    "stiffness": 1000,
                  },
                },
                "open": Object {
                  "animation": "spring",
                  "config": Object {
                    "damping": 500,
                    "mass": 3,
                    "overshootClamping": true,
                    "restDisplacementThreshold": 10,
                    "restSpeedThreshold": 10,
                    "stiffness": 1000,
                  },
                },
              }
            }
          >
            <View
              needsOffscreenAlphaCompositing={false}
              pointerEvents="box-none"
              style={
                Object {
                  "flex": 1,
                }
              }
            >
              <View
                enabled={false}
                hitSlop={
                  Object {
                    "right": -700,
                  }
                }
                maxDeltaY={20}
                minOffsetX={5}
                onHandlerStateChange={[Function]}
              >
                <View
                  style={
                    Object {
                      "flex": 1,
                      "transform": Array [
                        Object {
                          "translateX": 0,
                        },
                        Object {
                          "translateX": 0,
                        },
                      ],
                    }
                  }
                >
                  <View
                    pointerEvents="none"
                    style={
                      Object {
                        "backgroundColor": "rgb(242, 242, 242)",
                        "bottom": 0,
                        "left": 0,
                        "position": "absolute",
                        "shadowColor": "#000",
                        "shadowOffset": Object {
                          "height": 1,
                          "width": -1,
                        },
                        "shadowOpacity": 0.3,
                        "shadowRadius": 5,
                        "top": 0,
                        "width": 3,
                      }
                    }
                  />
                  <View
                    style={
                      Array [
                        Object {
                          "flex": 1,
                          "overflow": "hidden",
                        },
                        Array [
                          Object {
                            "backgroundColor": "rgb(242, 242, 242)",
                          },
                          undefined,
                        ],
                      ]
                    }
                  >
                    <View
                      style={
                        Object {
                          "flex": 1,
                          "flexDirection": "column-reverse",
                        }
                      }
                    >
                      <View
                        style={
                          Object {
                            "flex": 1,
                          }
                        }
                      >
                        <View
                          style={
                            Object {
                              "display": "flex",
                              "flex": 1,
                              "flexDirection": "column",
                              "justifyContent": "center",
                            }
                          }
                        >
                          <RCTScrollView>
                            <View>
                              <View
                                style={
                                  Object {
                                    "flexDirection": "row",
                                  }
                                }
                              >
                                <Text
                                  style={
                                    Array [
                                      Object {
                                        "color": "#000000",
                                        "fontFamily": "System",
                                        "fontWeight": "400",
                                        "textAlign": "left",
                                      },
                                      Object {
                                        "fontSize": 30,
                                        "fontWeight": "300",
                                        "padding": 8,
                                        "textAlign": "left",
                                      },
                                    ]
                                  }
                                >
                                  Alle Challenges
                                </Text>
                              </View>
                              <Text
                                style={
                                  Array [
                                    Object {
                                      "color": "#000000",
                                      "fontFamily": "System",
                                      "fontWeight": "400",
                                      "textAlign": "left",
                                    },
                                    Object {
                                      "fontSize": 20,
                                      "fontWeight": "300",
                                      "left": 10,
                                      "marginTop": 10,
                                      "textAlign": "left",
                                    },
                                  ]
                                }
                              >
                                Energie
                              </Text>
                              <RCTScrollView
                                ListEmptyComponent={[Function]}
                                disableVirtualization={false}
                                getItem={[Function]}
                                getItemCount={[Function]}
                                horizontal={true}
                                initialNumToRender={10}
                                keyExtractor={[Function]}
                                maxToRenderPerBatch={10}
                                onContentSizeChange={[Function]}
                                onEndReachedThreshold={2}
                                onLayout={[Function]}
                                onMomentumScrollEnd={[Function]}
                                onRefresh={[Function]}
                                onScroll={[Function]}
                                onScrollBeginDrag={[Function]}
                                onScrollEndDrag={[Function]}
                                refreshControl={
                                  <RefreshControlMock
                                    onRefresh={[Function]}
                                    refreshing={true}
                                  />
                                }
                                refreshing={true}
                                removeClippedSubviews={false}
                                renderItem={[Function]}
                                scrollEventThrottle={50}
                                stickyHeaderIndices={Array []}
                                style={
                                  Object {
                                    "height": 190,
                                    "opacity": 1,
                                    "width": "100%",
                                  }
                                }
                                testID="challenges-list-topic-1"
                                updateCellsBatchingPeriod={50}
                                viewabilityConfigCallbackPairs={Array []}
                                windowSize={21}
                              >
                                <RCTRefreshControl />
                                <View>
                                  <Text
                                    style={
                                      Array [
                                        Object {
                                          "color": "#000000",
                                          "fontFamily": "System",
                                          "fontWeight": "400",
                                          "textAlign": "left",
                                        },
                                        Array [
                                          Object {
                                            "color": "rgba(0, 0, 0, 0.87)",
                                            "fontFamily": "System",
                                            "fontWeight": "400",
                                            "textAlign": "left",
                                            "writingDirection": "ltr",
                                          },
                                          Array [
                                            Object {
                                              "fontSize": 24,
                                              "letterSpacing": 0,
                                              "lineHeight": 32,
                                              "marginVertical": 2,
                                            },
                                            Object {
                                              "marginHorizontal": 10,
                                              "marginTop": "30%",
                                              "textAlign": "center",
                                            },
                                          ],
                                          Array [
                                            Object {
                                              "fontSize": 24,
                                              "letterSpacing": 0,
                                              "lineHeight": 32,
                                              "marginVertical": 2,
                                            },
                                            Object {
                                              "marginHorizontal": 10,
                                              "marginTop": "30%",
                                              "textAlign": "center",
                                            },
                                          ],
                                        ],
                                      ]
                                    }
                                  >
                                    Du nimmst leider noch an keinen Challenges teil!
                                  </Text>
                                </View>
                              </RCTScrollView>
                              <Text
                                style={
                                  Array [
                                    Object {
                                      "color": "#000000",
                                      "fontFamily": "System",
                                      "fontWeight": "400",
                                      "textAlign": "left",
                                    },
                                    Object {
                                      "fontSize": 20,
                                      "fontWeight": "300",
                                      "left": 10,
                                      "marginTop": 10,
                                      "textAlign": "left",
                                    },
                                  ]
                                }
                              >
                                Abfall
                              </Text>
                              <RCTScrollView
                                ListEmptyComponent={[Function]}
                                disableVirtualization={false}
                                getItem={[Function]}
                                getItemCount={[Function]}
                                horizontal={true}
                                initialNumToRender={10}
                                keyExtractor={[Function]}
                                maxToRenderPerBatch={10}
                                onContentSizeChange={[Function]}
                                onEndReachedThreshold={2}
                                onLayout={[Function]}
                                onMomentumScrollEnd={[Function]}
                                onRefresh={[Function]}
                                onScroll={[Function]}
                                onScrollBeginDrag={[Function]}
                                onScrollEndDrag={[Function]}
                                refreshControl={
                                  <RefreshControlMock
                                    onRefresh={[Function]}
                                    refreshing={true}
                                  />
                                }
                                refreshing={true}
                                removeClippedSubviews={false}
                                renderItem={[Function]}
                                scrollEventThrottle={50}
                                stickyHeaderIndices={Array []}
                                style={
                                  Object {
                                    "height": 190,
                                    "opacity": 1,
                                    "width": "100%",
                                  }
                                }
                                testID="challenges-list-topic-3"
                                updateCellsBatchingPeriod={50}
                                viewabilityConfigCallbackPairs={Array []}
                                windowSize={21}
                              >
                                <RCTRefreshControl />
                                <View>
                                  <Text
                                    style={
                                      Array [
                                        Object {
                                          "color": "#000000",
                                          "fontFamily": "System",
                                          "fontWeight": "400",
                                          "textAlign": "left",
                                        },
                                        Array [
                                          Object {
                                            "color": "rgba(0, 0, 0, 0.87)",
                                            "fontFamily": "System",
                                            "fontWeight": "400",
                                            "textAlign": "left",
                                            "writingDirection": "ltr",
                                          },
                                          Array [
                                            Object {
                                              "fontSize": 24,
                                              "letterSpacing": 0,
                                              "lineHeight": 32,
                                              "marginVertical": 2,
                                            },
                                            Object {
                                              "marginHorizontal": 10,
                                              "marginTop": "30%",
                                              "textAlign": "center",
                                            },
                                          ],
                                          Array [
                                            Object {
                                              "fontSize": 24,
                                              "letterSpacing": 0,
                                              "lineHeight": 32,
                                              "marginVertical": 2,
                                            },
                                            Object {
                                              "marginHorizontal": 10,
                                              "marginTop": "30%",
                                              "textAlign": "center",
                                            },
                                          ],
                                        ],
                                      ]
                                    }
                                  >
                                    Du nimmst leider noch an keinen Challenges teil!
                                  </Text>
                                </View>
                              </RCTScrollView>
                              <Text
                                style={
                                  Array [
                                    Object {
                                      "color": "#000000",
                                      "fontFamily": "System",
                                      "fontWeight": "400",
                                      "textAlign": "left",
                                    },
                                    Object {
                                      "fontSize": 20,
                                      "fontWeight": "300",
                                      "left": 10,
                                      "marginTop": 10,
                                      "textAlign": "left",
                                    },
                                  ]
                                }
                              >
                                Konsum
                              </Text>
                              <RCTScrollView
                                ListEmptyComponent={[Function]}
                                disableVirtualization={false}
                                getItem={[Function]}
                                getItemCount={[Function]}
                                horizontal={true}
                                initialNumToRender={10}
                                keyExtractor={[Function]}
                                maxToRenderPerBatch={10}
                                onContentSizeChange={[Function]}
                                onEndReachedThreshold={2}
                                onLayout={[Function]}
                                onMomentumScrollEnd={[Function]}
                                onRefresh={[Function]}
                                onScroll={[Function]}
                                onScrollBeginDrag={[Function]}
                                onScrollEndDrag={[Function]}
                                refreshControl={
                                  <RefreshControlMock
                                    onRefresh={[Function]}
                                    refreshing={true}
                                  />
                                }
                                refreshing={true}
                                removeClippedSubviews={false}
                                renderItem={[Function]}
                                scrollEventThrottle={50}
                                stickyHeaderIndices={Array []}
                                style={
                                  Object {
                                    "height": 190,
                                    "opacity": 1,
                                    "width": "100%",
                                  }
                                }
                                testID="challenges-list-topic-4"
                                updateCellsBatchingPeriod={50}
                                viewabilityConfigCallbackPairs={Array []}
                                windowSize={21}
                              >
                                <RCTRefreshControl />
                                <View>
                                  <Text
                                    style={
                                      Array [
                                        Object {
                                          "color": "#000000",
                                          "fontFamily": "System",
                                          "fontWeight": "400",
                                          "textAlign": "left",
                                        },
                                        Array [
                                          Object {
                                            "color": "rgba(0, 0, 0, 0.87)",
                                            "fontFamily": "System",
                                            "fontWeight": "400",
                                            "textAlign": "left",
                                            "writingDirection": "ltr",
                                          },
                                          Array [
                                            Object {
                                              "fontSize": 24,
                                              "letterSpacing": 0,
                                              "lineHeight": 32,
                                              "marginVertical": 2,
                                            },
                                            Object {
                                              "marginHorizontal": 10,
                                              "marginTop": "30%",
                                              "textAlign": "center",
                                            },
                                          ],
                                          Array [
                                            Object {
                                              "fontSize": 24,
                                              "letterSpacing": 0,
                                              "lineHeight": 32,
                                              "marginVertical": 2,
                                            },
                                            Object {
                                              "marginHorizontal": 10,
                                              "marginTop": "30%",
                                              "textAlign": "center",
                                            },
                                          ],
                                        ],
                                      ]
                                    }
                                  >
                                    Du nimmst leider noch an keinen Challenges teil!
                                  </Text>
                                </View>
                              </RCTScrollView>
                              <Text
                                style={
                                  Array [
                                    Object {
                                      "color": "#000000",
                                      "fontFamily": "System",
                                      "fontWeight": "400",
                                      "textAlign": "left",
                                    },
                                    Object {
                                      "fontSize": 20,
                                      "fontWeight": "300",
                                      "left": 10,
                                      "marginTop": 10,
                                      "textAlign": "left",
                                    },
                                  ]
                                }
                              >
                                Transport
                              </Text>
                              <RCTScrollView
                                ListEmptyComponent={[Function]}
                                disableVirtualization={false}
                                getItem={[Function]}
                                getItemCount={[Function]}
                                horizontal={true}
                                initialNumToRender={10}
                                keyExtractor={[Function]}
                                maxToRenderPerBatch={10}
                                onContentSizeChange={[Function]}
                                onEndReachedThreshold={2}
                                onLayout={[Function]}
                                onMomentumScrollEnd={[Function]}
                                onRefresh={[Function]}
                                onScroll={[Function]}
                                onScrollBeginDrag={[Function]}
                                onScrollEndDrag={[Function]}
                                refreshControl={
                                  <RefreshControlMock
                                    onRefresh={[Function]}
                                    refreshing={true}
                                  />
                                }
                                refreshing={true}
                                removeClippedSubviews={false}
                                renderItem={[Function]}
                                scrollEventThrottle={50}
                                stickyHeaderIndices={Array []}
                                style={
                                  Object {
                                    "height": 190,
                                    "opacity": 1,
                                    "width": "100%",
                                  }
                                }
                                testID="challenges-list-topic-2"
                                updateCellsBatchingPeriod={50}
                                viewabilityConfigCallbackPairs={Array []}
                                windowSize={21}
                              >
                                <RCTRefreshControl />
                                <View>
                                  <Text
                                    style={
                                      Array [
                                        Object {
                                          "color": "#000000",
                                          "fontFamily": "System",
                                          "fontWeight": "400",
                                          "textAlign": "left",
                                        },
                                        Array [
                                          Object {
                                            "color": "rgba(0, 0, 0, 0.87)",
                                            "fontFamily": "System",
                                            "fontWeight": "400",
                                            "textAlign": "left",
                                            "writingDirection": "ltr",
                                          },
                                          Array [
                                            Object {
                                              "fontSize": 24,
                                              "letterSpacing": 0,
                                              "lineHeight": 32,
                                              "marginVertical": 2,
                                            },
                                            Object {
                                              "marginHorizontal": 10,
                                              "marginTop": "30%",
                                              "textAlign": "center",
                                            },
                                          ],
                                          Array [
                                            Object {
                                              "fontSize": 24,
                                              "letterSpacing": 0,
                                              "lineHeight": 32,
                                              "marginVertical": 2,
                                            },
                                            Object {
                                              "marginHorizontal": 10,
                                              "marginTop": "30%",
                                              "textAlign": "center",
                                            },
                                          ],
                                        ],
                                      ]
                                    }
                                  >
                                    Du nimmst leider noch an keinen Challenges teil!
                                  </Text>
                                </View>
                              </RCTScrollView>
                            </View>
                          </RCTScrollView>
                        </View>
                      </View>
                    </View>
                  </View>
                </View>
              </View>
            </View>
          </View>
        </View>
      </View>
    </RNCSafeAreaProvider>
  </View>
</View>
`;
